{
    "dikes": {
        "url": "sealevelrise:MHW_OS_mitDeichen_RCP85",
        "features": null,
        "info": {
            "people_affected": 5982,
            "flooded_area": 644,
            "part_affected": null
        }
    },
    "no_dikes": {
        "url": "sealevelrise:MHW_OS_ohneDeiche_RCP85",
        "features": null,
        "info": {
            "people_affected": 7563,
            "flooded_area": 908,
            "part_affected": null
        }
    }
}
